﻿<?xml version="1.0" encoding="UTF-8"?>
<TestRun id="c80eef21-1a41-4f3f-9f9b-295fe6dd5b54" name="steve@STEVE-PC 2010-07-21 08:35:59" runUser="steve-PC\steve" xmlns="http://microsoft.com/schemas/VisualStudio/TeamTest/2010">
  <TestSettings name="Local" id="65e836ff-6057-4ed8-885f-e3ffe4141dcb">
    <Description>These are default test settings for a local test run.</Description>
    <Deployment enabled="false" runDeploymentRoot="steve_STEVE-PC 2010-07-21 08_35_59">
      <DeploymentItem filename="C:\Users\steve\Documents\Visual Studio 2010\Projects\Logger\UBM.Logger\UBM.Logger\bin\Debug\UBM.Logger.dll" />
      <DeploymentItem filename="c:\users\steve\documents\visual studio 2010\Projects\MiddlewareScheduler\MiddlewareScheduler\bin\Debug\MiddlewareScheduler.exe" />
    </Deployment>
    <Execution>
      <TestTypeSpecific />
      <AgentRule name="Execution Agents">
      </AgentRule>
    </Execution>
  </TestSettings>
  <Times creation="2010-07-21T08:35:59.6158000+01:00" queuing="2010-07-21T08:36:04.7950000+01:00" start="2010-07-21T08:36:04.9666000+01:00" finish="2010-07-21T08:36:21.7852000+01:00" />
  <ResultSummary outcome="Error">
    <Counters total="28" executed="14" passed="13" error="0" failed="0" timeout="0" aborted="1" inconclusive="0" passedButRunAborted="0" notRunnable="0" notExecuted="14" disconnected="0" warning="0" completed="0" inProgress="0" pending="0" />
    <RunInfos>
      <RunInfo computerName="STEVE-PC" outcome="Error" timestamp="2010-07-21T08:36:21.7852000+01:00">
        <Text>Test host process exited unexpectedly.</Text>
      </RunInfo>
    </RunInfos>
  </ResultSummary>
  <TestDefinitions>
    <UnitTest name="EndDateTest" storage="c:\users\steve\documents\visual studio 2010\projects\middlewarescheduler\schedulertestproject\bin\debug\schedulertestproject.dll" id="4cb57dcc-6104-cb27-0ebf-7d6076b35a2e">
      <Execution id="8b3d1fc5-c2d7-4586-b6b8-3feb37db0026" />
      <TestMethod codeBase="C:/Users/steve/Documents/Visual Studio 2010/Projects/MiddlewareScheduler/SchedulerTestProject/bin/Debug/SchedulerTestProject.DLL" adapterTypeName="Microsoft.VisualStudio.TestTools.TestTypes.Unit.UnitTestAdapter, Microsoft.VisualStudio.QualityTools.Tips.UnitTest.Adapter, Version=10.0.0.0, Culture=neutral, PublicKeyToken=b03f5f7f11d50a3a" className="SchedulerTestProject.ScheduleTest, SchedulerTestProject, Version=1.0.0.0, Culture=neutral, PublicKeyToken=null" name="EndDateTest" />
    </UnitTest>
    <UnitTest name="WednesdayTest" storage="c:\users\steve\documents\visual studio 2010\projects\middlewarescheduler\schedulertestproject\bin\debug\schedulertestproject.dll" id="468f9942-202b-7546-f5de-bd531cea5d5d">
      <Execution id="0b522b58-ec14-4d76-ac1c-7626eadef2b0" />
      <TestMethod codeBase="C:/Users/steve/Documents/Visual Studio 2010/Projects/MiddlewareScheduler/SchedulerTestProject/bin/Debug/SchedulerTestProject.DLL" adapterTypeName="Microsoft.VisualStudio.TestTools.TestTypes.Unit.UnitTestAdapter, Microsoft.VisualStudio.QualityTools.Tips.UnitTest.Adapter, Version=10.0.0.0, Culture=neutral, PublicKeyToken=b03f5f7f11d50a3a" className="SchedulerTestProject.ScheduleTest, SchedulerTestProject, Version=1.0.0.0, Culture=neutral, PublicKeyToken=null" name="WednesdayTest" />
    </UnitTest>
    <UnitTest name="DayOfWeekIsTodayTest" storage="c:\users\steve\documents\visual studio 2010\projects\middlewarescheduler\schedulertestproject\bin\debug\schedulertestproject.dll" id="25df164e-890b-85cf-491d-077bcf4b3e29">
      <Execution id="2e2e88fd-4cf2-4dd0-b1bf-894b97f9cc0a" />
      <TestMethod codeBase="C:/Users/steve/Documents/Visual Studio 2010/Projects/MiddlewareScheduler/SchedulerTestProject/bin/Debug/SchedulerTestProject.DLL" adapterTypeName="Microsoft.VisualStudio.TestTools.TestTypes.Unit.UnitTestAdapter, Microsoft.VisualStudio.QualityTools.Tips.UnitTest.Adapter, Version=10.0.0.0, Culture=neutral, PublicKeyToken=b03f5f7f11d50a3a" className="SchedulerTestProject.ScheduleTest, SchedulerTestProject, Version=1.0.0.0, Culture=neutral, PublicKeyToken=null" name="DayOfWeekIsTodayTest" />
    </UnitTest>
    <UnitTest name="SchedulerProcessConstructorTest" storage="c:\users\steve\documents\visual studio 2010\projects\middlewarescheduler\schedulertestproject\bin\debug\schedulertestproject.dll" id="12525707-08fb-0f48-fe30-94ac4e39733b">
      <Execution id="0ac72ff6-f2ee-4984-a60a-127b3a2efea1" />
      <TestMethod codeBase="C:/Users/steve/Documents/Visual Studio 2010/Projects/MiddlewareScheduler/SchedulerTestProject/bin/Debug/SchedulerTestProject.DLL" adapterTypeName="Microsoft.VisualStudio.TestTools.TestTypes.Unit.UnitTestAdapter, Microsoft.VisualStudio.QualityTools.Tips.UnitTest.Adapter, Version=10.0.0.0, Culture=neutral, PublicKeyToken=b03f5f7f11d50a3a" className="SchedulerTestProject.SchedulerProcessTest, SchedulerTestProject, Version=1.0.0.0, Culture=neutral, PublicKeyToken=null" name="SchedulerProcessConstructorTest" />
    </UnitTest>
    <UnitTest name="StartTimeTest" storage="c:\users\steve\documents\visual studio 2010\projects\middlewarescheduler\schedulertestproject\bin\debug\schedulertestproject.dll" id="c76ef912-fc96-a10b-42be-85e75d38fae9">
      <Execution id="32c987ea-b034-4bff-bbc8-7d2aecaab6f8" />
      <TestMethod codeBase="C:/Users/steve/Documents/Visual Studio 2010/Projects/MiddlewareScheduler/SchedulerTestProject/bin/Debug/SchedulerTestProject.DLL" adapterTypeName="Microsoft.VisualStudio.TestTools.TestTypes.Unit.UnitTestAdapter, Microsoft.VisualStudio.QualityTools.Tips.UnitTest.Adapter, Version=10.0.0.0, Culture=neutral, PublicKeyToken=b03f5f7f11d50a3a" className="SchedulerTestProject.ScheduleTest, SchedulerTestProject, Version=1.0.0.0, Culture=neutral, PublicKeyToken=null" name="StartTimeTest" />
    </UnitTest>
    <UnitTest name="SaveExecutionsToXMLTest" storage="c:\users\steve\documents\visual studio 2010\projects\middlewarescheduler\schedulertestproject\bin\debug\schedulertestproject.dll" id="29581f09-23ea-e9d8-4ea3-a20508b69002">
      <DeploymentItems>
        <DeploymentItem filename="MiddlewareScheduler.exe" />
      </DeploymentItems>
      <Execution id="5d7be823-3e85-4711-b519-86428c7cc847" />
      <TestMethod codeBase="C:/Users/steve/Documents/Visual Studio 2010/Projects/MiddlewareScheduler/SchedulerTestProject/bin/Debug/SchedulerTestProject.DLL" adapterTypeName="Microsoft.VisualStudio.TestTools.TestTypes.Unit.UnitTestAdapter, Microsoft.VisualStudio.QualityTools.Tips.UnitTest.Adapter, Version=10.0.0.0, Culture=neutral, PublicKeyToken=b03f5f7f11d50a3a" className="SchedulerTestProject.SchedulerProcessTest, SchedulerTestProject, Version=1.0.0.0, Culture=neutral, PublicKeyToken=null" name="SaveExecutionsToXMLTest" />
    </UnitTest>
    <UnitTest name="GetSchedulesFromXMLTest" storage="c:\users\steve\documents\visual studio 2010\projects\middlewarescheduler\schedulertestproject\bin\debug\schedulertestproject.dll" id="bac33f07-b802-68e2-af1f-cae88a709ea9">
      <DeploymentItems>
        <DeploymentItem filename="MiddlewareScheduler.exe" />
      </DeploymentItems>
      <Execution id="6846bb36-7d2a-4fee-8226-f9917fe3a45c" />
      <TestMethod codeBase="C:/Users/steve/Documents/Visual Studio 2010/Projects/MiddlewareScheduler/SchedulerTestProject/bin/Debug/SchedulerTestProject.DLL" adapterTypeName="Microsoft.VisualStudio.TestTools.TestTypes.Unit.UnitTestAdapter, Microsoft.VisualStudio.QualityTools.Tips.UnitTest.Adapter, Version=10.0.0.0, Culture=neutral, PublicKeyToken=b03f5f7f11d50a3a" className="SchedulerTestProject.SchedulerProcessTest, SchedulerTestProject, Version=1.0.0.0, Culture=neutral, PublicKeyToken=null" name="GetSchedulesFromXMLTest" />
    </UnitTest>
    <UnitTest name="TimeIsValidTest" storage="c:\users\steve\documents\visual studio 2010\projects\middlewarescheduler\schedulertestproject\bin\debug\schedulertestproject.dll" id="9529f728-4d29-b457-bfb3-777246c0c0d8">
      <Execution id="8ac86eb8-2c60-4bf5-aea6-29ea94046932" />
      <TestMethod codeBase="C:/Users/steve/Documents/Visual Studio 2010/Projects/MiddlewareScheduler/SchedulerTestProject/bin/Debug/SchedulerTestProject.DLL" adapterTypeName="Microsoft.VisualStudio.TestTools.TestTypes.Unit.UnitTestAdapter, Microsoft.VisualStudio.QualityTools.Tips.UnitTest.Adapter, Version=10.0.0.0, Culture=neutral, PublicKeyToken=b03f5f7f11d50a3a" className="SchedulerTestProject.ScheduleTest, SchedulerTestProject, Version=1.0.0.0, Culture=neutral, PublicKeyToken=null" name="TimeIsValidTest" />
    </UnitTest>
    <UnitTest name="ScheduleConstructorTest" storage="c:\users\steve\documents\visual studio 2010\projects\middlewarescheduler\schedulertestproject\bin\debug\schedulertestproject.dll" id="4ad47978-cab4-ef28-25b3-7ee95cd9eb31">
      <Execution id="c15ea7ed-f679-4567-a5a0-e8a7fac2b03f" />
      <TestMethod codeBase="C:/Users/steve/Documents/Visual Studio 2010/Projects/MiddlewareScheduler/SchedulerTestProject/bin/Debug/SchedulerTestProject.DLL" adapterTypeName="Microsoft.VisualStudio.TestTools.TestTypes.Unit.UnitTestAdapter, Microsoft.VisualStudio.QualityTools.Tips.UnitTest.Adapter, Version=10.0.0.0, Culture=neutral, PublicKeyToken=b03f5f7f11d50a3a" className="SchedulerTestProject.ScheduleTest, SchedulerTestProject, Version=1.0.0.0, Culture=neutral, PublicKeyToken=null" name="ScheduleConstructorTest" />
    </UnitTest>
    <UnitTest name="ExecuteSchedulesTest" storage="c:\users\steve\documents\visual studio 2010\projects\middlewarescheduler\schedulertestproject\bin\debug\schedulertestproject.dll" id="f3445726-5821-370a-2312-1a8159590975">
      <Execution id="7d914568-d9b2-470f-84c0-607ef453a901" />
      <TestMethod codeBase="C:/Users/steve/Documents/Visual Studio 2010/Projects/MiddlewareScheduler/SchedulerTestProject/bin/Debug/SchedulerTestProject.DLL" adapterTypeName="Microsoft.VisualStudio.TestTools.TestTypes.Unit.UnitTestAdapter, Microsoft.VisualStudio.QualityTools.Tips.UnitTest.Adapter, Version=10.0.0.0, Culture=neutral, PublicKeyToken=b03f5f7f11d50a3a" className="SchedulerTestProject.SchedulerProcessTest, SchedulerTestProject, Version=1.0.0.0, Culture=neutral, PublicKeyToken=null" name="ExecuteSchedulesTest" />
    </UnitTest>
    <UnitTest name="SaturdayTest" storage="c:\users\steve\documents\visual studio 2010\projects\middlewarescheduler\schedulertestproject\bin\debug\schedulertestproject.dll" id="228ae06c-d8e2-bda2-896d-560a08bb5453">
      <Execution id="33277e83-f73f-4d10-ae21-84474b2319c2" />
      <TestMethod codeBase="C:/Users/steve/Documents/Visual Studio 2010/Projects/MiddlewareScheduler/SchedulerTestProject/bin/Debug/SchedulerTestProject.DLL" adapterTypeName="Microsoft.VisualStudio.TestTools.TestTypes.Unit.UnitTestAdapter, Microsoft.VisualStudio.QualityTools.Tips.UnitTest.Adapter, Version=10.0.0.0, Culture=neutral, PublicKeyToken=b03f5f7f11d50a3a" className="SchedulerTestProject.ScheduleTest, SchedulerTestProject, Version=1.0.0.0, Culture=neutral, PublicKeyToken=null" name="SaturdayTest" />
    </UnitTest>
    <UnitTest name="LoadSchedulesTest" storage="c:\users\steve\documents\visual studio 2010\projects\middlewarescheduler\schedulertestproject\bin\debug\schedulertestproject.dll" id="0dbddf87-076c-0ddd-aaca-27527fe5208d">
      <Execution id="72910d30-faac-4f4c-9e86-4708ec5bb593" />
      <TestMethod codeBase="C:/Users/steve/Documents/Visual Studio 2010/Projects/MiddlewareScheduler/SchedulerTestProject/bin/Debug/SchedulerTestProject.DLL" adapterTypeName="Microsoft.VisualStudio.TestTools.TestTypes.Unit.UnitTestAdapter, Microsoft.VisualStudio.QualityTools.Tips.UnitTest.Adapter, Version=10.0.0.0, Culture=neutral, PublicKeyToken=b03f5f7f11d50a3a" className="SchedulerTestProject.SchedulerProcessTest, SchedulerTestProject, Version=1.0.0.0, Culture=neutral, PublicKeyToken=null" name="LoadSchedulesTest" />
    </UnitTest>
    <UnitTest name="FrequencyTest" storage="c:\users\steve\documents\visual studio 2010\projects\middlewarescheduler\schedulertestproject\bin\debug\schedulertestproject.dll" id="7ee08aa3-b8c0-f931-cea9-edb170ad2a41">
      <Execution id="3f98d819-7ec2-4d7e-938e-7cb86e2e5b20" />
      <TestMethod codeBase="C:/Users/steve/Documents/Visual Studio 2010/Projects/MiddlewareScheduler/SchedulerTestProject/bin/Debug/SchedulerTestProject.DLL" adapterTypeName="Microsoft.VisualStudio.TestTools.TestTypes.Unit.UnitTestAdapter, Microsoft.VisualStudio.QualityTools.Tips.UnitTest.Adapter, Version=10.0.0.0, Culture=neutral, PublicKeyToken=b03f5f7f11d50a3a" className="SchedulerTestProject.ScheduleTest, SchedulerTestProject, Version=1.0.0.0, Culture=neutral, PublicKeyToken=null" name="FrequencyTest" />
    </UnitTest>
    <UnitTest name="EndTimeTest" storage="c:\users\steve\documents\visual studio 2010\projects\middlewarescheduler\schedulertestproject\bin\debug\schedulertestproject.dll" id="1ef02498-a25e-1738-cdf1-5cf84f94ddf7">
      <Execution id="a6b76fa0-3a93-4616-8616-4ce228c2fa10" />
      <TestMethod codeBase="C:/Users/steve/Documents/Visual Studio 2010/Projects/MiddlewareScheduler/SchedulerTestProject/bin/Debug/SchedulerTestProject.DLL" adapterTypeName="Microsoft.VisualStudio.TestTools.TestTypes.Unit.UnitTestAdapter, Microsoft.VisualStudio.QualityTools.Tips.UnitTest.Adapter, Version=10.0.0.0, Culture=neutral, PublicKeyToken=b03f5f7f11d50a3a" className="SchedulerTestProject.ScheduleTest, SchedulerTestProject, Version=1.0.0.0, Culture=neutral, PublicKeyToken=null" name="EndTimeTest" />
    </UnitTest>
    <UnitTest name="StartDateTest" storage="c:\users\steve\documents\visual studio 2010\projects\middlewarescheduler\schedulertestproject\bin\debug\schedulertestproject.dll" id="6d545caa-e0b4-1f25-bef8-6578e20cac6b">
      <Execution id="cd7595a9-7a68-48b7-9f8d-eb1f4712adb7" />
      <TestMethod codeBase="C:/Users/steve/Documents/Visual Studio 2010/Projects/MiddlewareScheduler/SchedulerTestProject/bin/Debug/SchedulerTestProject.DLL" adapterTypeName="Microsoft.VisualStudio.TestTools.TestTypes.Unit.UnitTestAdapter, Microsoft.VisualStudio.QualityTools.Tips.UnitTest.Adapter, Version=10.0.0.0, Culture=neutral, PublicKeyToken=b03f5f7f11d50a3a" className="SchedulerTestProject.ScheduleTest, SchedulerTestProject, Version=1.0.0.0, Culture=neutral, PublicKeyToken=null" name="StartDateTest" />
    </UnitTest>
    <UnitTest name="MondayTest" storage="c:\users\steve\documents\visual studio 2010\projects\middlewarescheduler\schedulertestproject\bin\debug\schedulertestproject.dll" id="d7f857b0-87a5-aa39-3783-af89b4f7f904">
      <Execution id="ed380970-0b94-4e2f-a986-b4659b646306" />
      <TestMethod codeBase="C:/Users/steve/Documents/Visual Studio 2010/Projects/MiddlewareScheduler/SchedulerTestProject/bin/Debug/SchedulerTestProject.DLL" adapterTypeName="Microsoft.VisualStudio.TestTools.TestTypes.Unit.UnitTestAdapter, Microsoft.VisualStudio.QualityTools.Tips.UnitTest.Adapter, Version=10.0.0.0, Culture=neutral, PublicKeyToken=b03f5f7f11d50a3a" className="SchedulerTestProject.ScheduleTest, SchedulerTestProject, Version=1.0.0.0, Culture=neutral, PublicKeyToken=null" name="MondayTest" />
    </UnitTest>
    <UnitTest name="LastExecutedTest" storage="c:\users\steve\documents\visual studio 2010\projects\middlewarescheduler\schedulertestproject\bin\debug\schedulertestproject.dll" id="406c22c5-fdf2-a138-4304-96635d037155">
      <Execution id="b1bddb1c-51c6-4eae-b065-93126843df4a" />
      <TestMethod codeBase="C:/Users/steve/Documents/Visual Studio 2010/Projects/MiddlewareScheduler/SchedulerTestProject/bin/Debug/SchedulerTestProject.DLL" adapterTypeName="Microsoft.VisualStudio.TestTools.TestTypes.Unit.UnitTestAdapter, Microsoft.VisualStudio.QualityTools.Tips.UnitTest.Adapter, Version=10.0.0.0, Culture=neutral, PublicKeyToken=b03f5f7f11d50a3a" className="SchedulerTestProject.ScheduleTest, SchedulerTestProject, Version=1.0.0.0, Culture=neutral, PublicKeyToken=null" name="LastExecutedTest" />
    </UnitTest>
    <UnitTest name="ThursdayTest" storage="c:\users\steve\documents\visual studio 2010\projects\middlewarescheduler\schedulertestproject\bin\debug\schedulertestproject.dll" id="ea3a7ec2-16fa-f434-862f-67724385c89f">
      <Execution id="5b87ddec-399b-4529-813b-ddf933054f68" />
      <TestMethod codeBase="C:/Users/steve/Documents/Visual Studio 2010/Projects/MiddlewareScheduler/SchedulerTestProject/bin/Debug/SchedulerTestProject.DLL" adapterTypeName="Microsoft.VisualStudio.TestTools.TestTypes.Unit.UnitTestAdapter, Microsoft.VisualStudio.QualityTools.Tips.UnitTest.Adapter, Version=10.0.0.0, Culture=neutral, PublicKeyToken=b03f5f7f11d50a3a" className="SchedulerTestProject.ScheduleTest, SchedulerTestProject, Version=1.0.0.0, Culture=neutral, PublicKeyToken=null" name="ThursdayTest" />
    </UnitTest>
    <UnitTest name="SundayTest" storage="c:\users\steve\documents\visual studio 2010\projects\middlewarescheduler\schedulertestproject\bin\debug\schedulertestproject.dll" id="5e82fedd-3dfe-a12f-17d9-911c6058568e">
      <Execution id="7cbeb03d-6719-4297-b865-048ef99bb783" />
      <TestMethod codeBase="C:/Users/steve/Documents/Visual Studio 2010/Projects/MiddlewareScheduler/SchedulerTestProject/bin/Debug/SchedulerTestProject.DLL" adapterTypeName="Microsoft.VisualStudio.TestTools.TestTypes.Unit.UnitTestAdapter, Microsoft.VisualStudio.QualityTools.Tips.UnitTest.Adapter, Version=10.0.0.0, Culture=neutral, PublicKeyToken=b03f5f7f11d50a3a" className="SchedulerTestProject.ScheduleTest, SchedulerTestProject, Version=1.0.0.0, Culture=neutral, PublicKeyToken=null" name="SundayTest" />
    </UnitTest>
    <UnitTest name="JobIdTest" storage="c:\users\steve\documents\visual studio 2010\projects\middlewarescheduler\schedulertestproject\bin\debug\schedulertestproject.dll" id="b2e82a73-e1ae-2d2d-b0d6-af8acbb833de">
      <Execution id="f0e19a67-634b-4109-a3a7-8441024ec22c" />
      <TestMethod codeBase="C:/Users/steve/Documents/Visual Studio 2010/Projects/MiddlewareScheduler/SchedulerTestProject/bin/Debug/SchedulerTestProject.DLL" adapterTypeName="Microsoft.VisualStudio.TestTools.TestTypes.Unit.UnitTestAdapter, Microsoft.VisualStudio.QualityTools.Tips.UnitTest.Adapter, Version=10.0.0.0, Culture=neutral, PublicKeyToken=b03f5f7f11d50a3a" className="SchedulerTestProject.ScheduleTest, SchedulerTestProject, Version=1.0.0.0, Culture=neutral, PublicKeyToken=null" name="JobIdTest" />
    </UnitTest>
    <UnitTest name="SetLastExecutionsFromXMLTest" storage="c:\users\steve\documents\visual studio 2010\projects\middlewarescheduler\schedulertestproject\bin\debug\schedulertestproject.dll" id="945ea4ab-13e9-4ab3-f532-79285b7aed92">
      <DeploymentItems>
        <DeploymentItem filename="MiddlewareScheduler.exe" />
      </DeploymentItems>
      <Execution id="610723a4-0059-4962-802a-e39ad674f5df" />
      <TestMethod codeBase="C:/Users/steve/Documents/Visual Studio 2010/Projects/MiddlewareScheduler/SchedulerTestProject/bin/Debug/SchedulerTestProject.DLL" adapterTypeName="Microsoft.VisualStudio.TestTools.TestTypes.Unit.UnitTestAdapter, Microsoft.VisualStudio.QualityTools.Tips.UnitTest.Adapter, Version=10.0.0.0, Culture=neutral, PublicKeyToken=b03f5f7f11d50a3a" className="SchedulerTestProject.SchedulerProcessTest, SchedulerTestProject, Version=1.0.0.0, Culture=neutral, PublicKeyToken=null" name="SetLastExecutionsFromXMLTest" />
    </UnitTest>
    <UnitTest name="TuesdayTest" storage="c:\users\steve\documents\visual studio 2010\projects\middlewarescheduler\schedulertestproject\bin\debug\schedulertestproject.dll" id="98850210-b9ef-b3ae-01d2-64c41c2dc4ea">
      <Execution id="7e9ab40d-3866-4001-b87b-cc4bb6b8aece" />
      <TestMethod codeBase="C:/Users/steve/Documents/Visual Studio 2010/Projects/MiddlewareScheduler/SchedulerTestProject/bin/Debug/SchedulerTestProject.DLL" adapterTypeName="Microsoft.VisualStudio.TestTools.TestTypes.Unit.UnitTestAdapter, Microsoft.VisualStudio.QualityTools.Tips.UnitTest.Adapter, Version=10.0.0.0, Culture=neutral, PublicKeyToken=b03f5f7f11d50a3a" className="SchedulerTestProject.ScheduleTest, SchedulerTestProject, Version=1.0.0.0, Culture=neutral, PublicKeyToken=null" name="TuesdayTest" />
    </UnitTest>
    <UnitTest name="FridayTest" storage="c:\users\steve\documents\visual studio 2010\projects\middlewarescheduler\schedulertestproject\bin\debug\schedulertestproject.dll" id="6e160b6a-d477-d927-0917-1b39f9d981e9">
      <Execution id="e13381a3-1298-48cc-8081-d34290ee55f7" />
      <TestMethod codeBase="C:/Users/steve/Documents/Visual Studio 2010/Projects/MiddlewareScheduler/SchedulerTestProject/bin/Debug/SchedulerTestProject.DLL" adapterTypeName="Microsoft.VisualStudio.TestTools.TestTypes.Unit.UnitTestAdapter, Microsoft.VisualStudio.QualityTools.Tips.UnitTest.Adapter, Version=10.0.0.0, Culture=neutral, PublicKeyToken=b03f5f7f11d50a3a" className="SchedulerTestProject.ScheduleTest, SchedulerTestProject, Version=1.0.0.0, Culture=neutral, PublicKeyToken=null" name="FridayTest" />
    </UnitTest>
    <UnitTest name="ExecuteJobTest" storage="c:\users\steve\documents\visual studio 2010\projects\middlewarescheduler\schedulertestproject\bin\debug\schedulertestproject.dll" id="591ad5c9-58a3-e5fd-1af8-1047fa060d93">
      <DeploymentItems>
        <DeploymentItem filename="MiddlewareScheduler.exe" />
      </DeploymentItems>
      <Execution id="ad7ad4d8-37ef-4b75-96ba-31302dd29084" />
      <TestMethod codeBase="C:/Users/steve/Documents/Visual Studio 2010/Projects/MiddlewareScheduler/SchedulerTestProject/bin/Debug/SchedulerTestProject.DLL" adapterTypeName="Microsoft.VisualStudio.TestTools.TestTypes.Unit.UnitTestAdapter, Microsoft.VisualStudio.QualityTools.Tips.UnitTest.Adapter, Version=10.0.0.0, Culture=neutral, PublicKeyToken=b03f5f7f11d50a3a" className="SchedulerTestProject.SchedulerProcessTest, SchedulerTestProject, Version=1.0.0.0, Culture=neutral, PublicKeyToken=null" name="ExecuteJobTest" />
    </UnitTest>
    <UnitTest name="SchedulesTest" storage="c:\users\steve\documents\visual studio 2010\projects\middlewarescheduler\schedulertestproject\bin\debug\schedulertestproject.dll" id="0a7fb0e1-084f-c612-6801-bf2e7312af0b">
      <DeploymentItems>
        <DeploymentItem filename="MiddlewareScheduler.exe" />
      </DeploymentItems>
      <Execution id="982c173a-a80a-4b93-8919-9fd78aece92c" />
      <TestMethod codeBase="C:/Users/steve/Documents/Visual Studio 2010/Projects/MiddlewareScheduler/SchedulerTestProject/bin/Debug/SchedulerTestProject.DLL" adapterTypeName="Microsoft.VisualStudio.TestTools.TestTypes.Unit.UnitTestAdapter, Microsoft.VisualStudio.QualityTools.Tips.UnitTest.Adapter, Version=10.0.0.0, Culture=neutral, PublicKeyToken=b03f5f7f11d50a3a" className="SchedulerTestProject.SchedulerProcessTest, SchedulerTestProject, Version=1.0.0.0, Culture=neutral, PublicKeyToken=null" name="SchedulesTest" />
    </UnitTest>
    <UnitTest name="DisabledTest" storage="c:\users\steve\documents\visual studio 2010\projects\middlewarescheduler\schedulertestproject\bin\debug\schedulertestproject.dll" id="3af988fc-e24e-ac1f-5ade-e58ac2e30c55">
      <Execution id="2b37618f-6b32-48f2-9512-325ca59c2086" />
      <TestMethod codeBase="C:/Users/steve/Documents/Visual Studio 2010/Projects/MiddlewareScheduler/SchedulerTestProject/bin/Debug/SchedulerTestProject.DLL" adapterTypeName="Microsoft.VisualStudio.TestTools.TestTypes.Unit.UnitTestAdapter, Microsoft.VisualStudio.QualityTools.Tips.UnitTest.Adapter, Version=10.0.0.0, Culture=neutral, PublicKeyToken=b03f5f7f11d50a3a" className="SchedulerTestProject.ScheduleTest, SchedulerTestProject, Version=1.0.0.0, Culture=neutral, PublicKeyToken=null" name="DisabledTest" />
    </UnitTest>
    <UnitTest name="ScheduleIdTest" storage="c:\users\steve\documents\visual studio 2010\projects\middlewarescheduler\schedulertestproject\bin\debug\schedulertestproject.dll" id="53bb0772-9fb1-7e1d-a37f-a1c244357d8c">
      <Execution id="8be3b8f7-cf25-4339-be9d-40dadf78b30b" />
      <TestMethod codeBase="C:/Users/steve/Documents/Visual Studio 2010/Projects/MiddlewareScheduler/SchedulerTestProject/bin/Debug/SchedulerTestProject.DLL" adapterTypeName="Microsoft.VisualStudio.TestTools.TestTypes.Unit.UnitTestAdapter, Microsoft.VisualStudio.QualityTools.Tips.UnitTest.Adapter, Version=10.0.0.0, Culture=neutral, PublicKeyToken=b03f5f7f11d50a3a" className="SchedulerTestProject.ScheduleTest, SchedulerTestProject, Version=1.0.0.0, Culture=neutral, PublicKeyToken=null" name="ScheduleIdTest" />
    </UnitTest>
    <UnitTest name="FrequencyIsValidTest" storage="c:\users\steve\documents\visual studio 2010\projects\middlewarescheduler\schedulertestproject\bin\debug\schedulertestproject.dll" id="cee68363-3b62-67cf-d8e6-407dc459a78f">
      <Execution id="89b71671-0d8c-4e57-b938-cf7c2b386934" />
      <TestMethod codeBase="C:/Users/steve/Documents/Visual Studio 2010/Projects/MiddlewareScheduler/SchedulerTestProject/bin/Debug/SchedulerTestProject.DLL" adapterTypeName="Microsoft.VisualStudio.TestTools.TestTypes.Unit.UnitTestAdapter, Microsoft.VisualStudio.QualityTools.Tips.UnitTest.Adapter, Version=10.0.0.0, Culture=neutral, PublicKeyToken=b03f5f7f11d50a3a" className="SchedulerTestProject.ScheduleTest, SchedulerTestProject, Version=1.0.0.0, Culture=neutral, PublicKeyToken=null" name="FrequencyIsValidTest" />
    </UnitTest>
  </TestDefinitions>
  <TestLists>
    <TestList name="Results Not in a List" id="8c84fa94-04c1-424b-9868-57a2d4851a1d" />
    <TestList name="All Loaded Results" id="19431567-8539-422a-85d7-44ee4e166bda" />
  </TestLists>
  <TestEntries>
    <TestEntry testId="0a7fb0e1-084f-c612-6801-bf2e7312af0b" executionId="982c173a-a80a-4b93-8919-9fd78aece92c" testListId="8c84fa94-04c1-424b-9868-57a2d4851a1d" />
    <TestEntry testId="0dbddf87-076c-0ddd-aaca-27527fe5208d" executionId="72910d30-faac-4f4c-9e86-4708ec5bb593" testListId="8c84fa94-04c1-424b-9868-57a2d4851a1d" />
    <TestEntry testId="12525707-08fb-0f48-fe30-94ac4e39733b" executionId="0ac72ff6-f2ee-4984-a60a-127b3a2efea1" testListId="8c84fa94-04c1-424b-9868-57a2d4851a1d" />
    <TestEntry testId="1ef02498-a25e-1738-cdf1-5cf84f94ddf7" executionId="a6b76fa0-3a93-4616-8616-4ce228c2fa10" testListId="8c84fa94-04c1-424b-9868-57a2d4851a1d" />
    <TestEntry testId="228ae06c-d8e2-bda2-896d-560a08bb5453" executionId="33277e83-f73f-4d10-ae21-84474b2319c2" testListId="8c84fa94-04c1-424b-9868-57a2d4851a1d" />
    <TestEntry testId="25df164e-890b-85cf-491d-077bcf4b3e29" executionId="2e2e88fd-4cf2-4dd0-b1bf-894b97f9cc0a" testListId="8c84fa94-04c1-424b-9868-57a2d4851a1d" />
    <TestEntry testId="29581f09-23ea-e9d8-4ea3-a20508b69002" executionId="5d7be823-3e85-4711-b519-86428c7cc847" testListId="8c84fa94-04c1-424b-9868-57a2d4851a1d" />
    <TestEntry testId="3af988fc-e24e-ac1f-5ade-e58ac2e30c55" executionId="2b37618f-6b32-48f2-9512-325ca59c2086" testListId="8c84fa94-04c1-424b-9868-57a2d4851a1d" />
    <TestEntry testId="406c22c5-fdf2-a138-4304-96635d037155" executionId="b1bddb1c-51c6-4eae-b065-93126843df4a" testListId="8c84fa94-04c1-424b-9868-57a2d4851a1d" />
    <TestEntry testId="468f9942-202b-7546-f5de-bd531cea5d5d" executionId="0b522b58-ec14-4d76-ac1c-7626eadef2b0" testListId="8c84fa94-04c1-424b-9868-57a2d4851a1d" />
    <TestEntry testId="4ad47978-cab4-ef28-25b3-7ee95cd9eb31" executionId="c15ea7ed-f679-4567-a5a0-e8a7fac2b03f" testListId="8c84fa94-04c1-424b-9868-57a2d4851a1d" />
    <TestEntry testId="4cb57dcc-6104-cb27-0ebf-7d6076b35a2e" executionId="8b3d1fc5-c2d7-4586-b6b8-3feb37db0026" testListId="8c84fa94-04c1-424b-9868-57a2d4851a1d" />
    <TestEntry testId="53bb0772-9fb1-7e1d-a37f-a1c244357d8c" executionId="8be3b8f7-cf25-4339-be9d-40dadf78b30b" testListId="8c84fa94-04c1-424b-9868-57a2d4851a1d" />
    <TestEntry testId="591ad5c9-58a3-e5fd-1af8-1047fa060d93" executionId="ad7ad4d8-37ef-4b75-96ba-31302dd29084" testListId="8c84fa94-04c1-424b-9868-57a2d4851a1d" />
    <TestEntry testId="5e82fedd-3dfe-a12f-17d9-911c6058568e" executionId="7cbeb03d-6719-4297-b865-048ef99bb783" testListId="8c84fa94-04c1-424b-9868-57a2d4851a1d" />
    <TestEntry testId="6d545caa-e0b4-1f25-bef8-6578e20cac6b" executionId="cd7595a9-7a68-48b7-9f8d-eb1f4712adb7" testListId="8c84fa94-04c1-424b-9868-57a2d4851a1d" />
    <TestEntry testId="6e160b6a-d477-d927-0917-1b39f9d981e9" executionId="e13381a3-1298-48cc-8081-d34290ee55f7" testListId="8c84fa94-04c1-424b-9868-57a2d4851a1d" />
    <TestEntry testId="7ee08aa3-b8c0-f931-cea9-edb170ad2a41" executionId="3f98d819-7ec2-4d7e-938e-7cb86e2e5b20" testListId="8c84fa94-04c1-424b-9868-57a2d4851a1d" />
    <TestEntry testId="945ea4ab-13e9-4ab3-f532-79285b7aed92" executionId="610723a4-0059-4962-802a-e39ad674f5df" testListId="8c84fa94-04c1-424b-9868-57a2d4851a1d" />
    <TestEntry testId="9529f728-4d29-b457-bfb3-777246c0c0d8" executionId="8ac86eb8-2c60-4bf5-aea6-29ea94046932" testListId="8c84fa94-04c1-424b-9868-57a2d4851a1d" />
    <TestEntry testId="98850210-b9ef-b3ae-01d2-64c41c2dc4ea" executionId="7e9ab40d-3866-4001-b87b-cc4bb6b8aece" testListId="8c84fa94-04c1-424b-9868-57a2d4851a1d" />
    <TestEntry testId="b2e82a73-e1ae-2d2d-b0d6-af8acbb833de" executionId="f0e19a67-634b-4109-a3a7-8441024ec22c" testListId="8c84fa94-04c1-424b-9868-57a2d4851a1d" />
    <TestEntry testId="bac33f07-b802-68e2-af1f-cae88a709ea9" executionId="6846bb36-7d2a-4fee-8226-f9917fe3a45c" testListId="8c84fa94-04c1-424b-9868-57a2d4851a1d" />
    <TestEntry testId="c76ef912-fc96-a10b-42be-85e75d38fae9" executionId="32c987ea-b034-4bff-bbc8-7d2aecaab6f8" testListId="8c84fa94-04c1-424b-9868-57a2d4851a1d" />
    <TestEntry testId="cee68363-3b62-67cf-d8e6-407dc459a78f" executionId="89b71671-0d8c-4e57-b938-cf7c2b386934" testListId="8c84fa94-04c1-424b-9868-57a2d4851a1d" />
    <TestEntry testId="d7f857b0-87a5-aa39-3783-af89b4f7f904" executionId="ed380970-0b94-4e2f-a986-b4659b646306" testListId="8c84fa94-04c1-424b-9868-57a2d4851a1d" />
    <TestEntry testId="ea3a7ec2-16fa-f434-862f-67724385c89f" executionId="5b87ddec-399b-4529-813b-ddf933054f68" testListId="8c84fa94-04c1-424b-9868-57a2d4851a1d" />
    <TestEntry testId="f3445726-5821-370a-2312-1a8159590975" executionId="7d914568-d9b2-470f-84c0-607ef453a901" testListId="8c84fa94-04c1-424b-9868-57a2d4851a1d" />
  </TestEntries>
  <Results>
    <UnitTestResult executionId="982c173a-a80a-4b93-8919-9fd78aece92c" testId="0a7fb0e1-084f-c612-6801-bf2e7312af0b" testName="SchedulesTest" computerName="STEVE-PC" duration="00:00:00.0551281" startTime="2010-07-21T08:36:05.0602000+01:00" endTime="2010-07-21T08:36:06.0118000+01:00" testType="13cdc9d9-ddb5-4fa4-a97d-d965ccfc6d4b" outcome="Passed" testListId="8c84fa94-04c1-424b-9868-57a2d4851a1d" relativeResultsDirectory="982c173a-a80a-4b93-8919-9fd78aece92c">
    </UnitTestResult>
    <UnitTestResult executionId="72910d30-faac-4f4c-9e86-4708ec5bb593" testId="0dbddf87-076c-0ddd-aaca-27527fe5208d" testName="LoadSchedulesTest" computerName="STEVE-PC" duration="00:00:00.0783766" startTime="2010-07-21T08:36:06.0274000+01:00" endTime="2010-07-21T08:36:06.1210000+01:00" testType="13cdc9d9-ddb5-4fa4-a97d-d965ccfc6d4b" outcome="Passed" testListId="8c84fa94-04c1-424b-9868-57a2d4851a1d" relativeResultsDirectory="72910d30-faac-4f4c-9e86-4708ec5bb593">
      <Output>
        <StdOut>21/07/2010 08:36:06 &lt;xml&gt;version="1.0" encoding="utf-8" 
21/07/2010 08:36:06 &lt;Settings&gt; 
21/07/2010 08:36:06 &lt;OutputFile&gt; 
21/07/2010 08:36:06 SomeOutput.txt 
21/07/2010 08:36:06 &lt;OutputFile&gt; 
21/07/2010 08:36:06 &lt;OutputDB&gt; 
21/07/2010 08:36:06 Data Source=UBM00963;Initial Catalog=Logger_dev;Persist Security Info=True;User ID=LoggerDev;Password=dev 
21/07/2010 08:36:06 &lt;OutputDB&gt; 
21/07/2010 08:36:06 &lt;SeverityLevel&gt; 
21/07/2010 08:36:06 Information 
21/07/2010 08:36:06 &lt;SeverityLevel&gt; 
21/07/2010 08:36:06 &lt;VerboseLevel&gt; 
21/07/2010 08:36:06 Full 
21/07/2010 08:36:06 &lt;VerboseLevel&gt; 
21/07/2010 08:36:06 &lt;SpecialCases&gt; 
21/07/2010 08:36:06 &lt;Case&gt; 
21/07/2010 08:36:06 &lt;Type&gt; 
21/07/2010 08:36:06 Application 
21/07/2010 08:36:06 &lt;Type&gt; 
21/07/2010 08:36:06 &lt;NameContains&gt; 
21/07/2010 08:36:06 Middleware 
21/07/2010 08:36:06 &lt;NameContains&gt; 
21/07/2010 08:36:06 &lt;SeverityLevel&gt; 
21/07/2010 08:36:06 Error 
21/07/2010 08:36:06 &lt;SeverityLevel&gt; 
21/07/2010 08:36:06 &lt;VerboseLevel&gt; 
21/07/2010 08:36:06 Basic 
21/07/2010 08:36:06 &lt;VerboseLevel&gt; 
21/07/2010 08:36:06 &lt;Case&gt; 
21/07/2010 08:36:06 &lt;Case&gt; 
21/07/2010 08:36:06 &lt;Type&gt; 
21/07/2010 08:36:06 Method 
21/07/2010 08:36:06 &lt;Type&gt; 
21/07/2010 08:36:06 &lt;NameContains&gt; 
21/07/2010 08:36:06 Main 
21/07/2010 08:36:06 &lt;NameContains&gt; 
21/07/2010 08:36:06 &lt;SeverityLevel&gt; 
21/07/2010 08:36:06 Warning 
21/07/2010 08:36:06 &lt;SeverityLevel&gt; 
21/07/2010 08:36:06 &lt;VerboseLevel&gt; 
21/07/2010 08:36:06 Full 
21/07/2010 08:36:06 &lt;VerboseLevel&gt; 
21/07/2010 08:36:06 &lt;Case&gt; 
21/07/2010 08:36:06 &lt;SpecialCases&gt; 
21/07/2010 08:36:06 &lt;Settings&gt; 
21/07/2010 08:36:06 Config File Is Well Formed... 
21/07/2010 08:36:06 Config File Parsed OK... 
21/07/2010 08:36:06 Logger Initialised OK...</StdOut>
      </Output>
    </UnitTestResult>
    <UnitTestResult executionId="0ac72ff6-f2ee-4984-a60a-127b3a2efea1" testId="12525707-08fb-0f48-fe30-94ac4e39733b" testName="SchedulerProcessConstructorTest" computerName="STEVE-PC" duration="00:00:00.0002866" startTime="2010-07-21T08:36:06.1366000+01:00" endTime="2010-07-21T08:36:06.1522000+01:00" testType="13cdc9d9-ddb5-4fa4-a97d-d965ccfc6d4b" outcome="Passed" testListId="8c84fa94-04c1-424b-9868-57a2d4851a1d" relativeResultsDirectory="0ac72ff6-f2ee-4984-a60a-127b3a2efea1">
    </UnitTestResult>
    <UnitTestResult executionId="a6b76fa0-3a93-4616-8616-4ce228c2fa10" testId="1ef02498-a25e-1738-cdf1-5cf84f94ddf7" testName="EndTimeTest" computerName="STEVE-PC" duration="00:00:00.0009632" startTime="2010-07-21T08:36:06.1678000+01:00" endTime="2010-07-21T08:36:06.1834000+01:00" testType="13cdc9d9-ddb5-4fa4-a97d-d965ccfc6d4b" outcome="Passed" testListId="8c84fa94-04c1-424b-9868-57a2d4851a1d" relativeResultsDirectory="a6b76fa0-3a93-4616-8616-4ce228c2fa10">
    </UnitTestResult>
    <UnitTestResult executionId="33277e83-f73f-4d10-ae21-84474b2319c2" testId="228ae06c-d8e2-bda2-896d-560a08bb5453" testName="SaturdayTest" computerName="STEVE-PC" duration="00:00:00.0016790" startTime="2010-07-21T08:36:06.1990000+01:00" endTime="2010-07-21T08:36:06.2146000+01:00" testType="13cdc9d9-ddb5-4fa4-a97d-d965ccfc6d4b" outcome="Passed" testListId="8c84fa94-04c1-424b-9868-57a2d4851a1d" relativeResultsDirectory="33277e83-f73f-4d10-ae21-84474b2319c2">
    </UnitTestResult>
    <UnitTestResult executionId="2e2e88fd-4cf2-4dd0-b1bf-894b97f9cc0a" testId="25df164e-890b-85cf-491d-077bcf4b3e29" testName="DayOfWeekIsTodayTest" computerName="STEVE-PC" duration="00:00:00.0010368" startTime="2010-07-21T08:36:06.2146000+01:00" endTime="2010-07-21T08:36:06.2302000+01:00" testType="13cdc9d9-ddb5-4fa4-a97d-d965ccfc6d4b" outcome="Passed" testListId="8c84fa94-04c1-424b-9868-57a2d4851a1d" relativeResultsDirectory="2e2e88fd-4cf2-4dd0-b1bf-894b97f9cc0a">
    </UnitTestResult>
    <UnitTestResult executionId="5d7be823-3e85-4711-b519-86428c7cc847" testId="29581f09-23ea-e9d8-4ea3-a20508b69002" testName="SaveExecutionsToXMLTest" computerName="STEVE-PC" duration="00:00:00.0020268" startTime="2010-07-21T08:36:06.2614000+01:00" endTime="2010-07-21T08:36:06.2926000+01:00" testType="13cdc9d9-ddb5-4fa4-a97d-d965ccfc6d4b" outcome="Passed" testListId="8c84fa94-04c1-424b-9868-57a2d4851a1d" relativeResultsDirectory="5d7be823-3e85-4711-b519-86428c7cc847">
    </UnitTestResult>
    <UnitTestResult executionId="2b37618f-6b32-48f2-9512-325ca59c2086" testId="3af988fc-e24e-ac1f-5ade-e58ac2e30c55" testName="DisabledTest" computerName="STEVE-PC" duration="00:00:00.0006303" startTime="2010-07-21T08:36:06.3082000+01:00" endTime="2010-07-21T08:36:06.3082000+01:00" testType="13cdc9d9-ddb5-4fa4-a97d-d965ccfc6d4b" outcome="Passed" testListId="8c84fa94-04c1-424b-9868-57a2d4851a1d" relativeResultsDirectory="2b37618f-6b32-48f2-9512-325ca59c2086">
    </UnitTestResult>
    <UnitTestResult executionId="b1bddb1c-51c6-4eae-b065-93126843df4a" testId="406c22c5-fdf2-a138-4304-96635d037155" testName="LastExecutedTest" computerName="STEVE-PC" duration="00:00:00.0017731" startTime="2010-07-21T08:36:06.3238000+01:00" endTime="2010-07-21T08:36:06.3394000+01:00" testType="13cdc9d9-ddb5-4fa4-a97d-d965ccfc6d4b" outcome="Passed" testListId="8c84fa94-04c1-424b-9868-57a2d4851a1d" relativeResultsDirectory="b1bddb1c-51c6-4eae-b065-93126843df4a">
    </UnitTestResult>
    <UnitTestResult executionId="0b522b58-ec14-4d76-ac1c-7626eadef2b0" testId="468f9942-202b-7546-f5de-bd531cea5d5d" testName="WednesdayTest" computerName="STEVE-PC" duration="00:00:00.0005155" startTime="2010-07-21T08:36:06.3550000+01:00" endTime="2010-07-21T08:36:06.3706000+01:00" testType="13cdc9d9-ddb5-4fa4-a97d-d965ccfc6d4b" outcome="Passed" testListId="8c84fa94-04c1-424b-9868-57a2d4851a1d" relativeResultsDirectory="0b522b58-ec14-4d76-ac1c-7626eadef2b0">
    </UnitTestResult>
    <UnitTestResult executionId="c15ea7ed-f679-4567-a5a0-e8a7fac2b03f" testId="4ad47978-cab4-ef28-25b3-7ee95cd9eb31" testName="ScheduleConstructorTest" computerName="STEVE-PC" duration="00:00:00.0004553" startTime="2010-07-21T08:36:06.3706000+01:00" endTime="2010-07-21T08:36:06.3862000+01:00" testType="13cdc9d9-ddb5-4fa4-a97d-d965ccfc6d4b" outcome="Passed" testListId="8c84fa94-04c1-424b-9868-57a2d4851a1d" relativeResultsDirectory="c15ea7ed-f679-4567-a5a0-e8a7fac2b03f">
    </UnitTestResult>
    <UnitTestResult executionId="8b3d1fc5-c2d7-4586-b6b8-3feb37db0026" testId="4cb57dcc-6104-cb27-0ebf-7d6076b35a2e" testName="EndDateTest" computerName="STEVE-PC" duration="00:00:00.0007224" startTime="2010-07-21T08:36:06.4018000+01:00" endTime="2010-07-21T08:36:06.4174000+01:00" testType="13cdc9d9-ddb5-4fa4-a97d-d965ccfc6d4b" outcome="Passed" testListId="8c84fa94-04c1-424b-9868-57a2d4851a1d" relativeResultsDirectory="8b3d1fc5-c2d7-4586-b6b8-3feb37db0026">
    </UnitTestResult>
    <UnitTestResult executionId="8be3b8f7-cf25-4339-be9d-40dadf78b30b" testId="53bb0772-9fb1-7e1d-a37f-a1c244357d8c" testName="ScheduleIdTest" computerName="STEVE-PC" duration="00:00:00.0015344" startTime="2010-07-21T08:36:06.4330000+01:00" endTime="2010-07-21T08:36:06.4486000+01:00" testType="13cdc9d9-ddb5-4fa4-a97d-d965ccfc6d4b" outcome="Passed" testListId="8c84fa94-04c1-424b-9868-57a2d4851a1d" relativeResultsDirectory="8be3b8f7-cf25-4339-be9d-40dadf78b30b">
    </UnitTestResult>
    <UnitTestResult executionId="ad7ad4d8-37ef-4b75-96ba-31302dd29084" testId="591ad5c9-58a3-e5fd-1af8-1047fa060d93" testName="ExecuteJobTest" computerName="STEVE-PC" duration="00:00:15.2586000" startTime="2010-07-21T08:36:06.5266000+01:00" endTime="2010-07-21T08:36:21.7852000+01:00" testType="13cdc9d9-ddb5-4fa4-a97d-d965ccfc6d4b" outcome="Aborted" testListId="8c84fa94-04c1-424b-9868-57a2d4851a1d" relativeResultsDirectory="ad7ad4d8-37ef-4b75-96ba-31302dd29084">
    </UnitTestResult>
    <UnitTestResult executionId="7cbeb03d-6719-4297-b865-048ef99bb783" testId="5e82fedd-3dfe-a12f-17d9-911c6058568e" testName="SundayTest" computerName="STEVE-PC" testType="13cdc9d9-ddb5-4fa4-a97d-d965ccfc6d4b" outcome="NotExecuted" testListId="8c84fa94-04c1-424b-9868-57a2d4851a1d" relativeResultsDirectory="7cbeb03d-6719-4297-b865-048ef99bb783">
    </UnitTestResult>
    <UnitTestResult executionId="cd7595a9-7a68-48b7-9f8d-eb1f4712adb7" testId="6d545caa-e0b4-1f25-bef8-6578e20cac6b" testName="StartDateTest" computerName="STEVE-PC" testType="13cdc9d9-ddb5-4fa4-a97d-d965ccfc6d4b" outcome="NotExecuted" testListId="8c84fa94-04c1-424b-9868-57a2d4851a1d" relativeResultsDirectory="cd7595a9-7a68-48b7-9f8d-eb1f4712adb7">
    </UnitTestResult>
    <UnitTestResult executionId="e13381a3-1298-48cc-8081-d34290ee55f7" testId="6e160b6a-d477-d927-0917-1b39f9d981e9" testName="FridayTest" computerName="STEVE-PC" testType="13cdc9d9-ddb5-4fa4-a97d-d965ccfc6d4b" outcome="NotExecuted" testListId="8c84fa94-04c1-424b-9868-57a2d4851a1d" relativeResultsDirectory="e13381a3-1298-48cc-8081-d34290ee55f7">
    </UnitTestResult>
    <UnitTestResult executionId="3f98d819-7ec2-4d7e-938e-7cb86e2e5b20" testId="7ee08aa3-b8c0-f931-cea9-edb170ad2a41" testName="FrequencyTest" computerName="STEVE-PC" testType="13cdc9d9-ddb5-4fa4-a97d-d965ccfc6d4b" outcome="NotExecuted" testListId="8c84fa94-04c1-424b-9868-57a2d4851a1d" relativeResultsDirectory="3f98d819-7ec2-4d7e-938e-7cb86e2e5b20">
    </UnitTestResult>
    <UnitTestResult executionId="610723a4-0059-4962-802a-e39ad674f5df" testId="945ea4ab-13e9-4ab3-f532-79285b7aed92" testName="SetLastExecutionsFromXMLTest" computerName="STEVE-PC" testType="13cdc9d9-ddb5-4fa4-a97d-d965ccfc6d4b" outcome="NotExecuted" testListId="8c84fa94-04c1-424b-9868-57a2d4851a1d" relativeResultsDirectory="610723a4-0059-4962-802a-e39ad674f5df">
    </UnitTestResult>
    <UnitTestResult executionId="8ac86eb8-2c60-4bf5-aea6-29ea94046932" testId="9529f728-4d29-b457-bfb3-777246c0c0d8" testName="TimeIsValidTest" computerName="STEVE-PC" testType="13cdc9d9-ddb5-4fa4-a97d-d965ccfc6d4b" outcome="NotExecuted" testListId="8c84fa94-04c1-424b-9868-57a2d4851a1d" relativeResultsDirectory="8ac86eb8-2c60-4bf5-aea6-29ea94046932">
    </UnitTestResult>
    <UnitTestResult executionId="7e9ab40d-3866-4001-b87b-cc4bb6b8aece" testId="98850210-b9ef-b3ae-01d2-64c41c2dc4ea" testName="TuesdayTest" computerName="STEVE-PC" testType="13cdc9d9-ddb5-4fa4-a97d-d965ccfc6d4b" outcome="NotExecuted" testListId="8c84fa94-04c1-424b-9868-57a2d4851a1d" relativeResultsDirectory="7e9ab40d-3866-4001-b87b-cc4bb6b8aece">
    </UnitTestResult>
    <UnitTestResult executionId="f0e19a67-634b-4109-a3a7-8441024ec22c" testId="b2e82a73-e1ae-2d2d-b0d6-af8acbb833de" testName="JobIdTest" computerName="STEVE-PC" testType="13cdc9d9-ddb5-4fa4-a97d-d965ccfc6d4b" outcome="NotExecuted" testListId="8c84fa94-04c1-424b-9868-57a2d4851a1d" relativeResultsDirectory="f0e19a67-634b-4109-a3a7-8441024ec22c">
    </UnitTestResult>
    <UnitTestResult executionId="6846bb36-7d2a-4fee-8226-f9917fe3a45c" testId="bac33f07-b802-68e2-af1f-cae88a709ea9" testName="GetSchedulesFromXMLTest" computerName="STEVE-PC" testType="13cdc9d9-ddb5-4fa4-a97d-d965ccfc6d4b" outcome="NotExecuted" testListId="8c84fa94-04c1-424b-9868-57a2d4851a1d" relativeResultsDirectory="6846bb36-7d2a-4fee-8226-f9917fe3a45c">
    </UnitTestResult>
    <UnitTestResult executionId="32c987ea-b034-4bff-bbc8-7d2aecaab6f8" testId="c76ef912-fc96-a10b-42be-85e75d38fae9" testName="StartTimeTest" computerName="STEVE-PC" testType="13cdc9d9-ddb5-4fa4-a97d-d965ccfc6d4b" outcome="NotExecuted" testListId="8c84fa94-04c1-424b-9868-57a2d4851a1d" relativeResultsDirectory="32c987ea-b034-4bff-bbc8-7d2aecaab6f8">
    </UnitTestResult>
    <UnitTestResult executionId="89b71671-0d8c-4e57-b938-cf7c2b386934" testId="cee68363-3b62-67cf-d8e6-407dc459a78f" testName="FrequencyIsValidTest" computerName="STEVE-PC" testType="13cdc9d9-ddb5-4fa4-a97d-d965ccfc6d4b" outcome="NotExecuted" testListId="8c84fa94-04c1-424b-9868-57a2d4851a1d" relativeResultsDirectory="89b71671-0d8c-4e57-b938-cf7c2b386934">
    </UnitTestResult>
    <UnitTestResult executionId="ed380970-0b94-4e2f-a986-b4659b646306" testId="d7f857b0-87a5-aa39-3783-af89b4f7f904" testName="MondayTest" computerName="STEVE-PC" testType="13cdc9d9-ddb5-4fa4-a97d-d965ccfc6d4b" outcome="NotExecuted" testListId="8c84fa94-04c1-424b-9868-57a2d4851a1d" relativeResultsDirectory="ed380970-0b94-4e2f-a986-b4659b646306">
    </UnitTestResult>
    <UnitTestResult executionId="5b87ddec-399b-4529-813b-ddf933054f68" testId="ea3a7ec2-16fa-f434-862f-67724385c89f" testName="ThursdayTest" computerName="STEVE-PC" testType="13cdc9d9-ddb5-4fa4-a97d-d965ccfc6d4b" outcome="NotExecuted" testListId="8c84fa94-04c1-424b-9868-57a2d4851a1d" relativeResultsDirectory="5b87ddec-399b-4529-813b-ddf933054f68">
    </UnitTestResult>
    <UnitTestResult executionId="7d914568-d9b2-470f-84c0-607ef453a901" testId="f3445726-5821-370a-2312-1a8159590975" testName="ExecuteSchedulesTest" computerName="STEVE-PC" testType="13cdc9d9-ddb5-4fa4-a97d-d965ccfc6d4b" outcome="NotExecuted" testListId="8c84fa94-04c1-424b-9868-57a2d4851a1d" relativeResultsDirectory="7d914568-d9b2-470f-84c0-607ef453a901">
    </UnitTestResult>
  </Results>
</TestRun>